^D:\BV\BV_ABGABE_EBLER_ALBERS\BV_ABGABE_EBLER_ALBERS\BINBV.CPP
/c /ZI /nologo /W3 /WX- /sdl /Od /Oy- /D _MBCS /Gm /EHsc /RTC1 /MDd /GS /fp:precise /Zc:wchar_t /Zc:forScope /Zc:inline /Fo"DEBUG\\" /Fd"DEBUG\VC140.PDB" /Gd /TP /analyze- D:\BV\BV_ABGABE_EBLER_ALBERS\BV_ABGABE_EBLER_ALBERS\BINBV.CPP
^D:\BV\BV_ABGABE_EBLER_ALBERS\BV_ABGABE_EBLER_ALBERS\IMAGE-IO.CPP
/c /ZI /nologo /W3 /WX- /sdl /Od /Oy- /D _MBCS /Gm /EHsc /RTC1 /MDd /GS /fp:precise /Zc:wchar_t /Zc:forScope /Zc:inline /Fo"DEBUG\\" /Fd"DEBUG\VC140.PDB" /Gd /TP /analyze- D:\BV\BV_ABGABE_EBLER_ALBERS\BV_ABGABE_EBLER_ALBERS\IMAGE-IO.CPP
^D:\BV\BV_ABGABE_EBLER_ALBERS\BV_ABGABE_EBLER_ALBERS\MAIN.CPP
/c /ZI /nologo /W3 /WX- /sdl /Od /Oy- /D _MBCS /Gm /EHsc /RTC1 /MDd /GS /fp:precise /Zc:wchar_t /Zc:forScope /Zc:inline /Fo"DEBUG\\" /Fd"DEBUG\VC140.PDB" /Gd /TP /analyze- D:\BV\BV_ABGABE_EBLER_ALBERS\BV_ABGABE_EBLER_ALBERS\MAIN.CPP
^D:\BV\BV_ABGABE_EBLER_ALBERS_TEST\BV_ABGABE_EBLER_ALBERS\BINBV.CPP
/c /ZI /nologo /W3 /WX- /sdl /Od /Oy- /D _MBCS /Gm /EHsc /RTC1 /MDd /GS /fp:precise /Zc:wchar_t /Zc:forScope /Zc:inline /Fo"DEBUG\\" /Fd"DEBUG\VC140.PDB" /Gd /TP /analyze- D:\BV\BV_ABGABE_EBLER_ALBERS_TEST\BV_ABGABE_EBLER_ALBERS\BINBV.CPP
^D:\BV\BV_ABGABE_EBLER_ALBERS_TEST\BV_ABGABE_EBLER_ALBERS\IMAGE-IO.CPP
/c /ZI /nologo /W3 /WX- /sdl /Od /Oy- /D _MBCS /Gm /EHsc /RTC1 /MDd /GS /fp:precise /Zc:wchar_t /Zc:forScope /Zc:inline /Fo"DEBUG\\" /Fd"DEBUG\VC140.PDB" /Gd /TP /analyze- D:\BV\BV_ABGABE_EBLER_ALBERS_TEST\BV_ABGABE_EBLER_ALBERS\IMAGE-IO.CPP
^D:\BV\BV_ABGABE_EBLER_ALBERS_TEST\BV_ABGABE_EBLER_ALBERS\MAIN.CPP
/c /ZI /nologo /W3 /WX- /sdl /Od /Oy- /D _MBCS /Gm /EHsc /RTC1 /MDd /GS /fp:precise /Zc:wchar_t /Zc:forScope /Zc:inline /Fo"DEBUG\\" /Fd"DEBUG\VC140.PDB" /Gd /TP /analyze- D:\BV\BV_ABGABE_EBLER_ALBERS_TEST\BV_ABGABE_EBLER_ALBERS\MAIN.CPP
^D:\BV\BV_ABGABE_EBLER_ALBERS_AUFGABE2\BV_ABGABE_EBLER_ALBERS\BINBV.CPP
/c /ZI /nologo /W3 /WX- /sdl /Od /Oy- /D _MBCS /Gm /EHsc /RTC1 /MDd /GS /fp:precise /Zc:wchar_t /Zc:forScope /Zc:inline /Fo"DEBUG\\" /Fd"DEBUG\VC140.PDB" /Gd /TP /analyze- D:\BV\BV_ABGABE_EBLER_ALBERS_AUFGABE2\BV_ABGABE_EBLER_ALBERS\BINBV.CPP
^D:\BV\BV_ABGABE_EBLER_ALBERS_AUFGABE2\BV_ABGABE_EBLER_ALBERS\IMAGE-IO.CPP
/c /ZI /nologo /W3 /WX- /sdl /Od /Oy- /D _MBCS /Gm /EHsc /RTC1 /MDd /GS /fp:precise /Zc:wchar_t /Zc:forScope /Zc:inline /Fo"DEBUG\\" /Fd"DEBUG\VC140.PDB" /Gd /TP /analyze- D:\BV\BV_ABGABE_EBLER_ALBERS_AUFGABE2\BV_ABGABE_EBLER_ALBERS\IMAGE-IO.CPP
^D:\BV\BV_ABGABE_EBLER_ALBERS_AUFGABE2\BV_ABGABE_EBLER_ALBERS\MAIN.CPP
/c /ZI /nologo /W3 /WX- /sdl /Od /Oy- /D _MBCS /Gm /EHsc /RTC1 /MDd /GS /fp:precise /Zc:wchar_t /Zc:forScope /Zc:inline /Fo"DEBUG\\" /Fd"DEBUG\VC140.PDB" /Gd /TP /analyze- D:\BV\BV_ABGABE_EBLER_ALBERS_AUFGABE2\BV_ABGABE_EBLER_ALBERS\MAIN.CPP
^D:\BV\BV_ABGABE_EBLER_ALBERS_AUFGABE3\BV_ABGABE_EBLER_ALBERS\BINBV.CPP
/c /ZI /nologo /W3 /WX- /sdl /Od /Oy- /D _MBCS /Gm /EHsc /RTC1 /MDd /GS /fp:precise /Zc:wchar_t /Zc:forScope /Zc:inline /Fo"DEBUG\\" /Fd"DEBUG\VC140.PDB" /Gd /TP /analyze- D:\BV\BV_ABGABE_EBLER_ALBERS_AUFGABE3\BV_ABGABE_EBLER_ALBERS\BINBV.CPP
^D:\BV\BV_ABGABE_EBLER_ALBERS_AUFGABE3\BV_ABGABE_EBLER_ALBERS\IMAGE-IO.CPP
/c /ZI /nologo /W3 /WX- /sdl /Od /Oy- /D _MBCS /Gm /EHsc /RTC1 /MDd /GS /fp:precise /Zc:wchar_t /Zc:forScope /Zc:inline /Fo"DEBUG\\" /Fd"DEBUG\VC140.PDB" /Gd /TP /analyze- D:\BV\BV_ABGABE_EBLER_ALBERS_AUFGABE3\BV_ABGABE_EBLER_ALBERS\IMAGE-IO.CPP
^D:\BV\BV_ABGABE_EBLER_ALBERS_AUFGABE3\BV_ABGABE_EBLER_ALBERS\MAIN.CPP
/c /ZI /nologo /W3 /WX- /sdl /Od /Oy- /D _MBCS /Gm /EHsc /RTC1 /MDd /GS /fp:precise /Zc:wchar_t /Zc:forScope /Zc:inline /Fo"DEBUG\\" /Fd"DEBUG\VC140.PDB" /Gd /TP /analyze- D:\BV\BV_ABGABE_EBLER_ALBERS_AUFGABE3\BV_ABGABE_EBLER_ALBERS\MAIN.CPP
^D:\BV\BV_ABGABE_EBLER_ALBERS_AUFGABE3\BV_ABGABE_EBLER_ALBERS\PRE_PROCESSING.CPP
/c /ZI /nologo /W3 /WX- /sdl /Od /Oy- /D _MBCS /Gm /EHsc /RTC1 /MDd /GS /fp:precise /Zc:wchar_t /Zc:forScope /Zc:inline /Fo"DEBUG\\" /Fd"DEBUG\VC140.PDB" /Gd /TP /analyze- D:\BV\BV_ABGABE_EBLER_ALBERS_AUFGABE3\BV_ABGABE_EBLER_ALBERS\PRE_PROCESSING.CPP
^D:\BV\BV_ABGABE_EBLER_ALBERS_AUFGABE4\BV_ABGABE_EBLER_ALBERS\BINBV.CPP
/c /ZI /nologo /W3 /WX- /sdl /Od /Oy- /D _MBCS /Gm /EHsc /RTC1 /MDd /GS /fp:precise /Zc:wchar_t /Zc:forScope /Zc:inline /Fo"DEBUG\\" /Fd"DEBUG\VC140.PDB" /Gd /TP /analyze- D:\BV\BV_ABGABE_EBLER_ALBERS_AUFGABE4\BV_ABGABE_EBLER_ALBERS\BINBV.CPP
^D:\BV\BV_ABGABE_EBLER_ALBERS_AUFGABE4\BV_ABGABE_EBLER_ALBERS\IMAGE-IO.CPP
/c /ZI /nologo /W3 /WX- /sdl /Od /Oy- /D _MBCS /Gm /EHsc /RTC1 /MDd /GS /fp:precise /Zc:wchar_t /Zc:forScope /Zc:inline /Fo"DEBUG\\" /Fd"DEBUG\VC140.PDB" /Gd /TP /analyze- D:\BV\BV_ABGABE_EBLER_ALBERS_AUFGABE4\BV_ABGABE_EBLER_ALBERS\IMAGE-IO.CPP
^D:\BV\BV_ABGABE_EBLER_ALBERS_AUFGABE4\BV_ABGABE_EBLER_ALBERS\KANTEN.CPP
/c /ZI /nologo /W3 /WX- /sdl /Od /Oy- /D _MBCS /Gm /EHsc /RTC1 /MDd /GS /fp:precise /Zc:wchar_t /Zc:forScope /Zc:inline /Fo"DEBUG\\" /Fd"DEBUG\VC140.PDB" /Gd /TP /analyze- D:\BV\BV_ABGABE_EBLER_ALBERS_AUFGABE4\BV_ABGABE_EBLER_ALBERS\KANTEN.CPP
^D:\BV\BV_ABGABE_EBLER_ALBERS_AUFGABE4\BV_ABGABE_EBLER_ALBERS\MAIN.CPP
/c /ZI /nologo /W3 /WX- /sdl /Od /Oy- /D _MBCS /Gm /EHsc /RTC1 /MDd /GS /fp:precise /Zc:wchar_t /Zc:forScope /Zc:inline /Fo"DEBUG\\" /Fd"DEBUG\VC140.PDB" /Gd /TP /analyze- D:\BV\BV_ABGABE_EBLER_ALBERS_AUFGABE4\BV_ABGABE_EBLER_ALBERS\MAIN.CPP
^D:\BV\BV_ABGABE_EBLER_ALBERS_AUFGABE4\BV_ABGABE_EBLER_ALBERS\PRE_PROCESSING.CPP
/c /ZI /nologo /W3 /WX- /sdl /Od /Oy- /D _MBCS /Gm /EHsc /RTC1 /MDd /GS /fp:precise /Zc:wchar_t /Zc:forScope /Zc:inline /Fo"DEBUG\\" /Fd"DEBUG\VC140.PDB" /Gd /TP /analyze- D:\BV\BV_ABGABE_EBLER_ALBERS_AUFGABE4\BV_ABGABE_EBLER_ALBERS\PRE_PROCESSING.CPP
^D:\BV\BV_ABGABE_EBLER_ALBERS_AUFGABE5\BV_ABGABE_EBLER_ALBERS\BINBV.CPP
/c /ZI /nologo /W3 /WX- /sdl /Od /Oy- /D _MBCS /Gm /EHsc /RTC1 /MDd /GS /fp:precise /Zc:wchar_t /Zc:forScope /Zc:inline /Fo"DEBUG\\" /Fd"DEBUG\VC140.PDB" /Gd /TP /analyze- D:\BV\BV_ABGABE_EBLER_ALBERS_AUFGABE5\BV_ABGABE_EBLER_ALBERS\BINBV.CPP
^D:\BV\BV_ABGABE_EBLER_ALBERS_AUFGABE5\BV_ABGABE_EBLER_ALBERS\IMAGE-IO.CPP
/c /ZI /nologo /W3 /WX- /sdl /Od /Oy- /D _MBCS /Gm /EHsc /RTC1 /MDd /GS /fp:precise /Zc:wchar_t /Zc:forScope /Zc:inline /Fo"DEBUG\\" /Fd"DEBUG\VC140.PDB" /Gd /TP /analyze- D:\BV\BV_ABGABE_EBLER_ALBERS_AUFGABE5\BV_ABGABE_EBLER_ALBERS\IMAGE-IO.CPP
^D:\BV\BV_ABGABE_EBLER_ALBERS_AUFGABE5\BV_ABGABE_EBLER_ALBERS\KANTEN.CPP
/c /ZI /nologo /W3 /WX- /sdl /Od /Oy- /D _MBCS /Gm /EHsc /RTC1 /MDd /GS /fp:precise /Zc:wchar_t /Zc:forScope /Zc:inline /Fo"DEBUG\\" /Fd"DEBUG\VC140.PDB" /Gd /TP /analyze- D:\BV\BV_ABGABE_EBLER_ALBERS_AUFGABE5\BV_ABGABE_EBLER_ALBERS\KANTEN.CPP
^D:\BV\BV_ABGABE_EBLER_ALBERS_AUFGABE5\BV_ABGABE_EBLER_ALBERS\MAIN.CPP
/c /ZI /nologo /W3 /WX- /sdl /Od /Oy- /D _MBCS /Gm /EHsc /RTC1 /MDd /GS /fp:precise /Zc:wchar_t /Zc:forScope /Zc:inline /Fo"DEBUG\\" /Fd"DEBUG\VC140.PDB" /Gd /TP /analyze- D:\BV\BV_ABGABE_EBLER_ALBERS_AUFGABE5\BV_ABGABE_EBLER_ALBERS\MAIN.CPP
^D:\BV\BV_ABGABE_EBLER_ALBERS_AUFGABE5\BV_ABGABE_EBLER_ALBERS\PRE_PROCESSING.CPP
/c /ZI /nologo /W3 /WX- /sdl /Od /Oy- /D _MBCS /Gm /EHsc /RTC1 /MDd /GS /fp:precise /Zc:wchar_t /Zc:forScope /Zc:inline /Fo"DEBUG\\" /Fd"DEBUG\VC140.PDB" /Gd /TP /analyze- D:\BV\BV_ABGABE_EBLER_ALBERS_AUFGABE5\BV_ABGABE_EBLER_ALBERS\PRE_PROCESSING.CPP
^D:\BV\BV_ABGABE_EBLER_ALBERS_AUFGABE5\BV_ABGABE_EBLER_ALBERS\TEXTUREN.CPP
/c /ZI /nologo /W3 /WX- /sdl /Od /Oy- /D _MBCS /Gm /EHsc /RTC1 /MDd /GS /fp:precise /Zc:wchar_t /Zc:forScope /Zc:inline /Fo"DEBUG\\" /Fd"DEBUG\VC140.PDB" /Gd /TP /analyze- D:\BV\BV_ABGABE_EBLER_ALBERS_AUFGABE5\BV_ABGABE_EBLER_ALBERS\TEXTUREN.CPP
